[
    {
      "STT": 2,
      "phone": "994500985",
      "name": "Gmobile",
      "Ngày cung cấp": 44974,
      "own": "CÔNG TY CỔ PHẦN L.E.T",
      "status": "available"
    },
    {
      "STT": 3,
      "phone": "994500776",
      "name": "Gmobile",
      "Ngày cung cấp": 44974,
      "own": "CÔNG TY CỔ PHẦN L.E.T",
      "status": "available"
    },
    {
      "STT": 5,
      "phone": "994500390",
      "name": "Gmobile",
      "Ngày cung cấp": 44985,
      "own": "CÔNG TY CỔ PHẦN L.E.T",
      "status": "available"
    },
    {
      "STT": 6,
      "phone": "994500392",
      "name": "Gmobile",
      "Ngày cung cấp": 44985,
      "own": "CÔNG TY CỔ PHẦN L.E.T",
      "status": "available"
    },
    {
      "STT": 14,
      "phone": "994500364",
      "name": "Gmobile",
      "Ngày cung cấp": 44974,
      "own": "CÔNG TY CỔ PHẦN L.E.T",
      "status": "available"
    },
    {
      "STT": 20,
      "phone": "994500420",
      "name": "Gmobile",
      "Ngày cung cấp": 44974,
      "own": "CÔNG TY CỔ PHẦN L.E.T",
      "status": "available"
    }
  ]