[
    {
      "name": "Mobifone",
      "phone": "0936405549",
      "Ngày cung cấp": 45008,
      "own": "CÔNG TY CỔ PHẦN L.E.T",
      "status": "available"
    },
    {
      "name": "Mobifone",
      "phone": "0901754053",
      "Ngày cung cấp": 45008,
      "own": "CÔNG TY CỔ PHẦN L.E.T",
      "status": "available"
    },
    {
      "name": "Mobifone",
      "phone": "0902268720",
      "Ngày cung cấp": 45008,
      "own": "CÔNG TY CỔ PHẦN L.E.T",
      "status": "available"
    },
    {
      "name": "Mobifone",
      "phone": "0936237848",
      "Ngày cung cấp": 45008,
      "own": "CÔNG TY CỔ PHẦN L.E.T",
      "status": "available"
    },
    {
      "name": "Mobifone",
      "phone": "0934681349",
      "Ngày cung cấp": 45008,
      "own": "CÔNG TY CỔ PHẦN L.E.T",
      "status": "available"
    },
    {
      "name": "Mobifone",
      "phone": "0936416274",
      "Ngày cung cấp": 45008,
      "own": "CÔNG TY CỔ PHẦN L.E.T",
      "status": "available"
    },
    {
      "name": "Mobifone",
      "phone": "0896560244",
      "Ngày cung cấp": 45008,
      "own": "CÔNG TY CỔ PHẦN L.E.T",
      "status": "available"
    },
    {
      "name": "Mobifone",
      "phone": "0936459517",
      "Ngày cung cấp": 45008,
      "own": "CÔNG TY CỔ PHẦN L.E.T",
      "status": "available"
    },
    {
      "name": "Mobifone",
      "phone": "0901755153",
      "Ngày cung cấp": 45015,
      "own": "CÔNG TY CỔ PHẦN L.E.T",
      "status": "available",
      "Tái sử dụng": 45030
    },
    {
      "name": "Mobifone",
      "phone": "0901768912",
      "Ngày cung cấp": 45015,
      "own": "CÔNG TY CỔ PHẦN L.E.T",
      "status": "available",
      "Tái sử dụng": 45030
    },
    {
      "name": "Mobifone",
      "phone": "0901729274",
      "Ngày cung cấp": 45015,
      "own": "CÔNG TY CỔ PHẦN L.E.T",
      "status": "available",
      "Tái sử dụng": 45030
    },
    {
      "name": "Mobifone",
      "phone": "0901795817",
      "Ngày cung cấp": 45015,
      "own": "CÔNG TY CỔ PHẦN L.E.T",
      "status": "available",
      "Tái sử dụng": 45030
    },
    {
      "name": "Mobifone",
      "phone": "0902143054",
      "Ngày cung cấp": 45015,
      "own": "CÔNG TY CỔ PHẦN L.E.T",
      "status": "available",
      "Tái sử dụng": 45030
    },
    {
      "name": "Mobifone",
      "phone": "0901757265",
      "Ngày cung cấp": 45015,
      "own": "CÔNG TY CỔ PHẦN L.E.T",
      "status": "available",
      "Tái sử dụng": 45030
    },
    {
      "name": "Mobifone",
      "phone": "0902143911",
      "Ngày cung cấp": 45015,
      "own": "CÔNG TY CỔ PHẦN L.E.T",
      "status": "available",
      "Tái sử dụng": 45030
    },
    {
      "name": "Mobifone",
      "phone": "0901730352",
      "Ngày cung cấp": 45015,
      "own": "CÔNG TY CỔ PHẦN L.E.T",
      "status": "available",
      "Tái sử dụng": 45030
    },
    {
      "name": "Mobifone",
      "phone": "0902106834",
      "Ngày cung cấp": 45015,
      "own": "CÔNG TY CỔ PHẦN L.E.T",
      "status": "available",
      "Tái sử dụng": 45030
    },
    {
      "name": "Mobifone",
      "phone": "0901729645",
      "Ngày cung cấp": 45015,
      "own": "CÔNG TY CỔ PHẦN L.E.T",
      "status": "available",
      "Tái sử dụng": 45030
    },
    {
      "name": "Mobifone",
      "phone": "0931700153",
      "Ngày cung cấp": 45019,
      "own": "CÔNG TY CỔ PHẦN L.E.T",
      "status": "available"
    }
  ]