[
    {
      "STT": 1,
      "phone": "866000927",
      "name": "Viettel",
      "status": "available"
    },
    {
      "STT": 2,
      "phone": "866001479",
      "name": "Viettel",
      "status": "unavailable"
    },
    {
      "STT": 3,
      "phone": "866002300",
      "name": "Viettel",
      "status": "available"
    },
    {
      "STT": 4,
      "phone": "866003217",
      "name": "Viettel",
      "status": "available"
    },
    {
      "STT": 5,
      "phone": "866003453",
      "name": "Viettel",
      "status": "available"
    },
    {
      "STT": 6,
      "phone": "866005070",
      "name": "Viettel",
      "status": "available"
    },
    {
      "STT": 7,
      "phone": "866005439",
      "name": "Viettel",
      "status": "available"
    },
    {
      "STT": 8,
      "phone": "866007689",
      "name": "Viettel",
      "status": "available"
    },
    {
      "STT": 9,
      "phone": "866009786",
      "name": "Viettel",
      "status": "available"
    },
    {
      "STT": 10,
      "phone": "866010127",
      "name": "Viettel",
      "status": "available"
    },
    {
      "STT": 11,
      "phone": "866010148",
      "name": "Viettel",
      "status": "available"
    },
    {
      "STT": 12,
      "phone": "866010390",
      "name": "Viettel",
      "status": "available"
    },
    {
      "STT": 13,
      "phone": "866010670",
      "name": "Viettel",
      "status": "available"
    },
    {
      "STT": 14,
      "phone": "866010784",
      "name": "Viettel",
      "status": "available"
    },
    {
      "STT": 15,
      "phone": "866010786",
      "name": "Viettel",
      "status": "available"
    },
    {
      "STT": 16,
      "phone": "866011272",
      "name": "Viettel",
      "status": "available"
    },
    {
      "STT": 17,
      "phone": "866011923",
      "name": "Viettel",
      "status": "available"
    },
    {
      "STT": 18,
      "phone": "866012301",
      "name": "Viettel",
      "status": "available"
    },
    {
      "STT": 19,
      "phone": "866012310",
      "name": "Viettel",
      "status": "available"
    },
    {
      "STT": 20,
      "phone": "866012488",
      "name": "Viettel",
      "status": "available"
    },
    {
      "STT": 21,
      "phone": "866013439",
      "name": "Viettel",
      "status": "available"
    },
    {
      "STT": 22,
      "phone": "866013613",
      "name": "Viettel",
      "status": "available"
    },
    {
      "STT": 23,
      "phone": "866014368",
      "name": "Viettel",
      "status": "available"
    },
    {
      "STT": 24,
      "phone": "866014554",
      "name": "Viettel",
      "status": "available"
    },
    {
      "STT": 25,
      "phone": "866015519",
      "name": "Viettel",
      "status": "available"
    },
    {
      "STT": 26,
      "phone": "866016783",
      "name": "Viettel",
      "status": "available"
    },
    {
      "STT": 27,
      "phone": "866017088",
      "name": "Viettel",
      "status": "available"
    },
    {
      "STT": 28,
      "phone": "866017227",
      "name": "Viettel",
      "status": "available"
    },
    {
      "STT": 29,
      "phone": "866017266",
      "name": "Viettel",
      "status": "available"
    },
    {
      "STT": 30,
      "phone": "866017557",
      "name": "Viettel",
      "status": "available"
    },
    {
      "STT": 31,
      "phone": "866017588",
      "name": "Viettel",
      "status": "available"
    },
    {
      "STT": 32,
      "phone": "866017617",
      "name": "Viettel",
      "status": "available"
    },
    {
      "STT": 33,
      "phone": "866017667",
      "name": "Viettel",
      "status": "available"
    },
    {
      "STT": 34,
      "phone": "866017717",
      "name": "Viettel",
      "status": "available"
    },
    {
      "STT": 35,
      "phone": "866017773",
      "name": "Viettel",
      "status": "available"
    },
    {
      "STT": 36,
      "phone": "866017942",
      "name": "Viettel",
      "status": "available"
    },
    {
      "STT": 37,
      "phone": "866020178",
      "name": "Viettel",
      "status": "available"
    },
    {
      "STT": 38,
      "phone": "866020250",
      "name": "Viettel",
      "status": "available"
    },
    {
      "STT": 39,
      "phone": "866020251",
      "name": "Viettel",
      "status": "available"
    },
    {
      "STT": 40,
      "phone": "866020371",
      "name": "Viettel",
      "status": "available"
    },
    {
      "STT": 41,
      "phone": "866020502",
      "name": "Viettel",
      "status": "available"
    },
    {
      "STT": 42,
      "phone": "866020592",
      "name": "Viettel",
      "status": "available"
    },
    {
      "STT": 43,
      "phone": "866020695",
      "name": "Viettel",
      "status": "available"
    },
    {
      "STT": 44,
      "phone": "866020903",
      "name": "Viettel",
      "status": "available"
    },
    {
      "STT": 45,
      "phone": "866021004",
      "name": "Viettel",
      "status": "available"
    },
    {
      "STT": 46,
      "phone": "866021076",
      "name": "Viettel",
      "status": "available"
    },
    {
      "STT": 47,
      "phone": "866021097",
      "name": "Viettel",
      "status": "available"
    },
    {
      "STT": 48,
      "phone": "866021171",
      "name": "Viettel",
      "status": "available"
    },
    {
      "STT": 49,
      "phone": "866023166",
      "name": "Viettel",
      "status": "available"
    }
  ]