[
    {
      "PRO": "3CX Pro 4 SC Private Cloud <p class='des'>Tối đa 4 cuộc gọi đồng thời.</p>",
      "MAX": 4,
      "__EMPTY": 14100000,
      "__EMPTY_1": 0,
      "__EMPTY_2": 2000000,
      "__EMPTY_3": 16100000,
      "__EMPTY_4": 14100000,
      "__EMPTY_5": "1 Core, 2 GB RAM, 30 GB SSD",
      "__EMPTY_6": 1140000
    },
    {
      "PRO": "3CX Pro 8 SC Private Cloud <p class='des'>Tối đa 8 cuộc gọi đồng thời.</p>",
      "MAX": 8,
      "__EMPTY": 17500000,
      "__EMPTY_1": 0,
      "__EMPTY_2": 2000000,
      "__EMPTY_3": 19500000,
      "__EMPTY_4": 17500000,
      "__EMPTY_5": "1 Core, 2 GB RAM, 30 GB SSD",
      "__EMPTY_6": 1820000
    },
    {
      "PRO": "3CX Pro 16 SC Private Cloud<p class='des'>Tối đa 16 cuộc gọi đồng thời.</p>",
      "MAX": 16,
      "__EMPTY": 35400000,
      "__EMPTY_1": 6000000,
      "__EMPTY_2": 5000000,
      "__EMPTY_3": 46400000,
      "__EMPTY_4": 35400000,
      "__EMPTY_5": "4 Cores, 4 GB RAM, 100 GB SSD",
      "__EMPTY_6": 3720000
    },
    {
      "PRO": "3CX Pro 24 SC Private Cloud<p class='des'>Tối đa 24 cuộc gọi đồng thời.</p>",
      "MAX": 24,
      "__EMPTY": 47900000,
      "__EMPTY_1": 10000000,
      "__EMPTY_2": 5000000,
      "__EMPTY_3": 62900000,
      "__EMPTY_4": 47900000,
      "__EMPTY_5": "4 Cores, 4 GB RAM, 100 GB SSD",
      "__EMPTY_6": 5420000
    },
    {
      "PRO": "3CX Pro 32 SC Private Cloud<p class='des'>Tối đa 32 cuộc gọi đồng thời.</p>",
      "MAX": 32,
      "__EMPTY": 58500000,
      "__EMPTY_1": 12000000,
      "__EMPTY_2": 5000000,
      "__EMPTY_3": 75500000,
      "__EMPTY_4": 58500000,
      "__EMPTY_5": "4 Cores, 4 GB RAM, 100 GB SSD",
      "__EMPTY_6": 7140000
    },
    {
      "PRO": "3CX Pro 48 SC Private Cloud<p class='des'>Tối đa 48 cuộc gọi đồng thời.</p>",
      "MAX": 48,
      "__EMPTY": 87700000,
      "__EMPTY_1": 24000000,
      "__EMPTY_2": 10000000,
      "__EMPTY_3": 121700000,
      "__EMPTY_4": 87700000,
      "__EMPTY_5": "4 Cores, 4 GB RAM, 100 GB SSD",
      "__EMPTY_6": 10580000
    },
    {
      "PRO": "3CX Pro 64 SC Private Cloud<p class='des'>Tối đa 64 cuộc gọi đồng thời.</p>",
      "MAX": 64,
      "__EMPTY": 108800000,
      "__EMPTY_1": 28000000,
      "__EMPTY_2": 10000000,
      "__EMPTY_3": 146800000,
      "__EMPTY_4": 108800000,
      "__EMPTY_5": "4 Cores, 4 GB RAM, 100 GB SSD",
      "__EMPTY_6": 14000000
    },
    {
      "PRO": "3CX Pro 96 SC Private Cloud<p class='des'>Tối đa 96 cuộc gọi đồng thời.</p>",
      "MAX": 96,
      "__EMPTY": 180160000,
      "__EMPTY_1": 32000000,
      "__EMPTY_2": 10000000,
      "__EMPTY_3": 222160000,
      "__EMPTY_4": 180160000,
      "__EMPTY_5": "6 Cores, 8 GB RAM, 300 GB SSD",
      "__EMPTY_6": 23440000
    },
    {
      "PRO": "3CX Pro 128 SC Private Cloud<p class='des'>Tối đa 128 cuộc gọi đồng thời.</p>",
      "MAX": 128,
      "__EMPTY": 213860000,
      "__EMPTY_1": 40000000,
      "__EMPTY_2": 10000000,
      "__EMPTY_3": 263860000,
      "__EMPTY_4": 213860000,
      "__EMPTY_5": "6 Cores, 8 GB RAM, 300 GB SSD",
      "__EMPTY_6": 28580000
    },
    {
      "PRO": "3CX Pro 192 SC Private Cloud<p class='des'>Tối đa 192 cuộc gọi đồng thời.</p>",
      "MAX": 192,
      "__EMPTY": 317660000,
      "__EMPTY_1": 60000000,
      "__EMPTY_2": 10000000,
      "__EMPTY_3": 387660000,
      "__EMPTY_4": 317660000,
      "__EMPTY_5": "6 Cores, 8 GB RAM, 300 GB SSD",
      "__EMPTY_6": 45340000
    },
    {
      "PRO": "3CX Pro 256 SC Private Cloud<p class='des'>Tối đa 256 cuộc gọi đồng thời.</p>",
      "MAX": 256,
      "__EMPTY": 402560000,
      "__EMPTY_1": 70000000,
      "__EMPTY_2": 10000000,
      "__EMPTY_3": 482560000,
      "__EMPTY_4": 402560000,
      "__EMPTY_5": "6 Cores, 8 GB RAM, 300 GB SSD",
      "__EMPTY_6": 60320000
    },
    {
      "PRO": "3CX Pro 512 SC Private Cloud<p class='des'>Tối đa 512 cuộc gọi đồng thời.</p>",
      "MAX": 512,
      "__EMPTY": 627244000,
      "__EMPTY_1": 100000000,
      "__EMPTY_2": 10000000,
      "__EMPTY_3": 737244000,
      "__EMPTY_4": 627244000,
      "__EMPTY_5": "8 Cores, 16 GB RAM, 512 GB SSD",
      "__EMPTY_6": 94620000
    },
    {
      "PRO": "3CX Pro 1024 SC Private Cloud<p class='des'>Tối đa 1024 cuộc gọi đồng thời.</p>",
      "MAX": 1024,
      "__EMPTY": 1151260000,
      "__EMPTY_1": 200000000,
      "__EMPTY_2": 10000000,
      "__EMPTY_3": 1361260000,
      "__EMPTY_4": 1151260000,
      "__EMPTY_5": "12 Cores, 24 GB RAM, 1 TB SSD",
      "__EMPTY_6": 171820000
    }
]